<?xml version="1.0" ?>
<!-- =================================================================================== -->
<!-- |    This document was autogenerated by xacro from /home/marc/Documents/raven_manipulation/src/testbed/testbed_description/urdf/testbed.xacro | -->
<!-- |    EDITING THIS FILE BY HAND IS NOT RECOMMENDED                                 | -->
<!-- =================================================================================== -->
<robot name="testbed">
    <!-- LINKS -->
    <link name="functional_home" />
    <link name="z_mounting_origin" />
    <!-- Testbed Frame -->
    <link name="testbed_frame">
        <visual>
            <origin rpy="0 0 0" xyz="0 0 0" />
            <geometry>
                <mesh filename="package://testbed_description/meshes/testbed/testbed_frame.dae" />
            </geometry>
        </visual>
        <collision>
            <origin rpy="0 0 0" xyz="0 0 0" />
            <geometry>
                <mesh filename="package://testbed_description/meshes/testbed/testbed_frame_collision.dae" />
            </geometry>
        </collision>
        <inertial>
            <mass value="27" />
            <inertia ixx="30" ixy="0.0" ixz="0.0" iyy="18" iyz="0.0" izz="11.5" />
            <origin xyz="0 0 0" rpy="0 0 0" />
        </inertial>
    </link>
    <!-- Y Stage -->
    <link name="y_axis_link">
        <visual>
            <origin rpy="0 0 0" xyz="0 0 0" />
            <geometry>
                <mesh filename="package://testbed_description/meshes/testbed/y_axis.dae" />
            </geometry>
        </visual>
        <collision>
            <origin rpy="0 0 0" xyz="0 0 0" />
            <geometry>
                <mesh filename="package://testbed_description/meshes/testbed/y_axis_collision.dae" />
            </geometry>
        </collision>
        <inertial>
            <mass value="24" />
            <inertia ixx="8" ixy="0.0" ixz="0.0" iyy="9" iyz="0.0" izz="1" />
            <origin xyz="0 0 0" rpy="0 0 0" />
        </inertial>
    </link>
    <!-- X Stage -->
    <link name="x_axis_link">
        <visual>
            <origin rpy="0 0 0" xyz="0 0 0" />
            <geometry>
                <mesh filename="package://testbed_description/meshes/testbed/x_axis.dae" />
            </geometry>
        </visual>
        <collision>
            <origin rpy="0 0 0" xyz="0 0 -0.30725" />
            <geometry>
                <box size="0.3556 0.508 0.303" />
            </geometry>
        </collision>
        <inertial>
            <mass value="4.5" />
            <inertia ixx="0.05" ixy="0.0" ixz="0.0" iyy="0.10" iyz="0.0" izz="0.15" />
            <origin xyz="0 0 0" rpy="0 0 0" />
        </inertial>
    </link>
    <!-- Yaw Stage -->
    <link name="yaw_axis_link">
        <visual>
            <origin rpy="0 0 0" xyz="0 0 0" />
            <geometry>
                <mesh filename="package://testbed_description/meshes/testbed/yaw_axis.dae" />
            </geometry>
        </visual>
        <collision>
            <origin rpy="0 0 0.5235987755982988" xyz="0 0 0" />
            <geometry>
                <mesh filename="package://testbed_description/meshes/testbed/yaw_axis_collision.dae" />
            </geometry>
        </collision>
        <inertial>
            <mass value="13.5" />
            <inertia ixx="1.7" ixy="0.0" ixz="0.0" iyy="0.156" iyz="0.0" izz="1.71" />
            <origin xyz="0 0 0" rpy="0 0 0" />
        </inertial>
    </link>
    <!-- Z Stage -->
    <link name="zaxis_link">
        <visual>
            <origin rpy="0 0 0" xyz="0 0 0" />
            <geometry>
                <mesh filename="package://testbed_description/meshes/testbed/zaxis.dae" />
            </geometry>
        </visual>
        <collision>
            <origin rpy="0 0 0.5235987755982988" xyz="0 0 0" />
            <geometry>
                <mesh filename="package://testbed_description/meshes/testbed/zaxis_collision.dae" />
            </geometry>
        </collision>
        <inertial>
            <mass value="7.15" />
            <inertia ixx="0.077" ixy="0.0" ixz="0.0" iyy="0.094" iyz="0.0" izz="0.077" />
            <origin xyz="0 0 0" rpy="0 0 0" />
        </inertial>
    </link>
    <!-- JOINTS -->
    <joint name="testbed_frame_to_functional_home" type="fixed">
        <origin rpy="0 0 0" xyz="0.4 0.4 0.2" />
        <parent link="testbed_frame" />
        <child link="functional_home" />
    </joint>
    <!-- attach y_axis to frame -->
    <joint name="corexy_y" type="prismatic">
        <parent link="testbed_frame" />
        <child link="y_axis_link" />
        <origin rpy="0 0 0" xyz="-0.00175 0.0806207 0" />
        <axis xyz="0 1 0" />
        <limit effort="100" lower="0.24937930000000003" upper="1.5343793" velocity="10" />
        <dynamics damping="10.0" friction="0.0" />
    </joint>
    <!-- attach x_axis to y_axis -->
    <joint name="corexy_x" type="prismatic">
        <parent link="y_axis_link" />
        <child link="x_axis_link" />
        <origin rpy="0 0 0" xyz="0.16712 0 0" />
        <axis xyz="1 0 0" />
        <limit effort="100" lower="0.0" upper="1.40588" velocity="10" />
        <dynamics damping="10.0" friction="0.0" />
    </joint>
    <!-- attach yaw_axis to x_axis -->
    <joint name="yaw" type="continuous">
        <parent link="x_axis_link" />
        <child link="yaw_axis_link" />
        <origin rpy="0 0 -1.5707963267948966" xyz="0 0 0" />
        <axis xyz="0 0 1" />
        <limit effort="100" lower="0.035" upper="6.257" velocity="10" />
        <dynamics damping="10.0" friction="0.0" />
    </joint>
    <!-- attach zaxis to yaw_axis -->
    <joint name="zaxis" type="prismatic">
        <parent link="yaw_axis_link" />
        <child link="zaxis_link" />
        <origin rpy="0 0 0" xyz="0 0 0.06" />
        <axis xyz="0 0 1" />
        <limit effort="100" lower="0.06" upper="0.6379999999999999" velocity="10" />
        <dynamics damping="10.0" friction="0.0" />
    </joint>
    <joint name="z_to_z_mount" type="fixed">
        <origin rpy="0 -1.5707963267948966 0" xyz="-0.12489 -0.031906 0.0127" />
        <parent link="zaxis_link" />
        <child link="z_mounting_origin" />
    </joint>
    <transmission name="trans_corexy_y">
        <type>transmission_interface/SimpleTransmission</type>
        <joint name="corexy_y">
            <hardwareInterface>hardware_interface/VelocityJointInterface</hardwareInterface>
        </joint>
        <actuator name="corexy_y_motor">
            <hardwareInterface>hardware_interface/VelocityJointInterface</hardwareInterface>
            <mechanicalReduction>1</mechanicalReduction>
        </actuator>
    </transmission>
    <transmission name="trans_corexy_x">
        <type>transmission_interface/SimpleTransmission</type>
        <joint name="corexy_x">
            <hardwareInterface>hardware_interface/VelocityJointInterface</hardwareInterface>
        </joint>
        <actuator name="corexy_x_motor">
            <hardwareInterface>hardware_interface/VelocityJointInterface</hardwareInterface>
            <mechanicalReduction>1</mechanicalReduction>
        </actuator>
    </transmission>
    <transmission name="trans_yaw">
        <type>transmission_interface/SimpleTransmission</type>
        <joint name="yaw">
            <hardwareInterface>hardware_interface/VelocityJointInterface</hardwareInterface>
        </joint>
        <actuator name="yaw_motor">
            <hardwareInterface>hardware_interface/VelocityJointInterface</hardwareInterface>
            <mechanicalReduction>1</mechanicalReduction>
        </actuator>
    </transmission>
    <transmission name="trans_zaxis">
        <type>transmission_interface/SimpleTransmission</type>
        <joint name="zaxis">
            <hardwareInterface>hardware_interface/VelocityJointInterface</hardwareInterface>
        </joint>
        <actuator name="zaxis_motor">
            <hardwareInterface>hardware_interface/VelocityJointInterface</hardwareInterface>
            <mechanicalReduction>1</mechanicalReduction>
        </actuator>
    </transmission>
    <gazebo>
        <plugin name="gazebo_ros_control" filename="libgazebo_ros_control.so">
            <robotNamespace>/</robotNamespace>
        </plugin>
    </gazebo>
</robot>
