<?xml version="1.0" encoding="UTF-8" standalone="no" ?>
<COLLADA version="1.4.1" xmlns="http://www.collada.org/2005/11/COLLADASchema">

  <asset>
    <created>2024-10-21T16:44:36</created>
    <modified>2024-10-21T16:44:36</modified>
    <unit meter="1" name="meters"/>
    <up_axis>Z_UP</up_axis>
  </asset>

  <library_materials>
    <material id="ID9" name="ID9">
      <instance_effect url="#ID9-fx"/>
    </material>
  </library_materials>

  <library_effects>
    <effect id="ID9-fx" name="ID9">
      <profile_COMMON>
        <technique sid="COMMON">
          <lambert>
            <diffuse>
              <color sid="diffuse">0.615686 0.811765 0.92549 1</color>
            </diffuse>
            <transparent opaque="A_ONE">
              <color sid="transparent">1 1 1 1</color>
            </transparent>
            <transparency>
              <float sid="transparency">1</float>
            </transparency>
          </lambert>
        </technique>
        <extra>
          <technique profile="OTHER">
            <double_sided>1</double_sided>
          </technique>
        </extra>
      </profile_COMMON>
    </effect>
  </library_effects>

  <library_geometries>
    <geometry id="ID3">
      <mesh>
        <source id="ID4">
          <float_array count="288" id="ID5">1.7272 -0.1879 -0.066 0.1016 -0.1879 -0.132 1.7272 -0.1879 -0.132 0.1016 -0.1879 -0.066 0.1016 0.1879 -0.066 0.1016 0.1879 -0.132 0.1016 -0.1879 -0.132 0.1016 -0.1879 -0.066 1.7272 0.1879 -0.066 1.7272 0.1879 -0.132 0.1016 0.1879 -0.132 0.1016 0.1879 -0.066 1.7272 0.2459 -0.066 0.1016 0.2459 -0.132 1.7272 0.2459 -0.132 0.1016 0.2459 -0.066 0.1016 0.3048 -0.066 0.1016 0.3048 -0.132 0.1016 0.2459 -0.132 0.1016 0.2459 -0.066 0.1016 0.3048 -0.066 0 0.3048 -0.132 0.1016 0.3048 -0.132 0 0.3048 -0.066 0 0.3048 -0.066 0 -0.3048 -0.132 0 0.3048 -0.132 0 -0.3048 -0.066 0.1016 -0.3048 -0.066 0.1016 -0.3048 -0.132 0 -0.3048 -0.132 0 -0.3048 -0.066 0.1016 -0.2459 -0.066 0.1016 -0.2459 -0.132 0.1016 -0.3048 -0.132 0.1016 -0.3048 -0.066 1.7272 -0.2459 -0.066 1.7272 -0.2459 -0.132 0.1016 -0.2459 -0.132 0.1016 -0.2459 -0.066 1.7272 -0.3048 -0.066 1.7272 -0.2459 -0.132 1.7272 -0.2459 -0.066 1.7272 -0.3048 -0.132 1.8288 -0.3048 -0.066 1.8288 -0.3048 -0.132 1.7272 -0.3048 -0.132 1.7272 -0.3048 -0.066 1.8288 0.3048 -0.132 1.8288 -0.3048 -0.132 1.8288 -0.3048 -0.066 1.8288 0.3048 -0.066 1.8288 0.3048 -0.066 1.7272 0.3048 -0.132 1.8288 0.3048 -0.132 1.7272 0.3048 -0.066 1.7272 0.2459 -0.066 1.7272 0.3048 -0.132 1.7272 0.3048 -0.066 1.7272 0.2459 -0.132 1.7272 -0.1879 -0.066 1.7272 0.1879 -0.132 1.7272 0.1879 -0.066 1.7272 -0.1879 -0.132 0.1016 -0.1879 -0.132 0 -0.3048 -0.132 0.1016 -0.2459 -0.132 0.1016 0.2459 -0.132 0.1016 0.3048 -0.132 0 0.3048 -0.132 1.8288 -0.3048 -0.132 1.8288 0.3048 -0.132 1.7272 0.1879 -0.132 0.1016 0.1879 -0.132 0.1016 -0.3048 -0.132 1.7272 0.2459 -0.132 1.7272 -0.2459 -0.132 1.7272 -0.3048 -0.132 1.7272 0.3048 -0.132 1.7272 -0.1879 -0.132 1.8288 -0.3048 -0.066 1.7272 -0.1879 -0.066 1.7272 0.1879 -0.066 0.1016 0.2459 -0.066 0 0.3048 -0.066 0.1016 0.3048 -0.066 0 -0.3048 -0.066 0.1016 -0.1879 -0.066 0.1016 -0.2459 -0.066 1.8288 0.3048 -0.066 1.7272 0.2459 -0.066 1.7272 0.3048 -0.066 1.7272 -0.2459 -0.066 0.1016 -0.3048 -0.066 1.7272 -0.3048 -0.066 0.1016 0.1879 -0.066</float_array>
          <technique_common>
            <accessor count="96" source="#ID5" stride="3">
              <param name="X" type="float"/>
              <param name="Y" type="float"/>
              <param name="Z" type="float"/>
            </accessor>
          </technique_common>
        </source>
        <source id="ID6">
          <float_array count="288" id="ID7">0 1 0 0 1 0 0 1 0 0 1 0 1 0 0 1 0 0 1 0 0 1 0 0 0 -1 0 0 -1 0 0 -1 0 0 -1 0 0 1 0 0 1 0 0 1 0 0 1 0 1 0 0 1 0 0 1 0 0 1 0 0 0 1 0 0 1 0 0 1 0 0 1 0 -1 -0 -0 -1 -0 -0 -1 -0 -0 -1 -0 -0 0 -1 0 0 -1 0 0 -1 0 0 -1 0 1 0 0 1 0 0 1 0 0 1 0 0 0 -1 0 0 -1 0 0 -1 0 0 -1 0 -1 0 0 -1 0 0 -1 0 0 -1 0 0 0 -1 0 0 -1 0 0 -1 0 0 -1 0 1 0 0 1 0 0 1 0 0 1 0 0 0 1 0 0 1 0 0 1 0 0 1 0 -1 0 0 -1 0 0 -1 0 0 -1 0 0 -1 0 0 -1 0 0 -1 0 0 -1 0 0 -0 -0 -1 -0 -0 -1 -0 -0 -1 -0 -0 -1 -0 -0 -1 -0 -0 -1 -0 -0 -1 -0 -0 -1 -0 -0 -1 -0 -0 -1 -0 -0 -1 -0 -0 -1 -0 -0 -1 -0 -0 -1 -0 -0 -1 -0 -0 -1 0 0 1 0 0 1 0 0 1 0 0 1 0 0 1 0 0 1 0 0 1 0 0 1 0 0 1 0 0 1 0 0 1 0 0 1 0 0 1 0 0 1 0 0 1 0 0 1</float_array>
          <technique_common>
            <accessor count="96" source="#ID7" stride="3">
              <param name="X" type="float"/>
              <param name="Y" type="float"/>
              <param name="Z" type="float"/>
            </accessor>
          </technique_common>
        </source>
        <vertices id="ID8">
          <input semantic="POSITION" source="#ID4"/>
          <input semantic="NORMAL" source="#ID6"/>
        </vertices>
        <triangles count="64" material="ID9">
          <input offset="0" semantic="VERTEX" source="#ID8"/>
          <p>0 2 1 1 3 0 4 6 5 6 4 7 8 10 9 10 8 11 12 14 13 13 15 12 16 18 17 18 16 19 20 22 21 21 23 20 24 26 25 25 27 24 28 30 29 30 28 31 32 34 33 34 32 35 36 38 37 38 36 39 40 42 41 40 41 43 44 46 45 46 44 47 48 50 49 48 51 50 52 54 53 53 55 52 56 58 57 56 57 59 60 62 61 60 61 63 64 66 65 67 69 68 70 72 71 72 73 67 64 65 69 65 66 74 72 75 71 76 70 77 71 75 78 79 70 76 66 64 76 67 73 69 69 73 64 72 67 75 70 79 72 64 79 76 80 82 81 83 85 84 86 88 87 89 91 90 87 92 81 87 84 86 86 93 88 92 94 80 80 81 92 82 80 89 95 82 83 92 87 88 83 84 95 84 87 95 89 90 82 82 90 83</p>
        </triangles>
      </mesh>
    </geometry>
  </library_geometries>

  <library_visual_scenes>
    <visual_scene id="ID1">
      <node id="ID2">
        <instance_geometry url="#ID3">
          <bind_material>
            <technique_common>
              <instance_material symbol="ID9" target="#ID9"/>
            </technique_common>
          </bind_material>
        </instance_geometry>
      </node>
    </visual_scene>
  </library_visual_scenes>

  <scene>
    <instance_visual_scene url="#ID1"/>
  </scene>

  <library_nodes/>

</COLLADA>
