<?xml version="1.0" encoding="UTF-8" standalone="no" ?>
<COLLADA version="1.4.1" xmlns="http://www.collada.org/2005/11/COLLADASchema">

  <asset>
    <created>2024-10-21T17:13:31</created>
    <modified>2024-10-21T17:13:31</modified>
    <unit meter="1" name="meters"/>
    <up_axis>Z_UP</up_axis>
  </asset>

  <library_materials>
    <material id="ID9" name="ID9">
      <instance_effect url="#ID9-fx"/>
    </material>
  </library_materials>

  <library_effects>
    <effect id="ID9-fx" name="ID9">
      <profile_COMMON>
        <technique sid="COMMON">
          <lambert>
            <diffuse>
              <color sid="diffuse">0.615686 0.811765 0.92549 1</color>
            </diffuse>
            <transparent opaque="A_ONE">
              <color sid="transparent">1 1 1 1</color>
            </transparent>
            <transparency>
              <float sid="transparency">1</float>
            </transparency>
          </lambert>
        </technique>
        <extra>
          <technique profile="OTHER">
            <double_sided>1</double_sided>
          </technique>
        </extra>
      </profile_COMMON>
    </effect>
  </library_effects>

  <library_geometries>
    <geometry id="ID3">
      <mesh>
        <source id="ID4">
          <float_array count="1140" id="ID5">0.158294 -0.0405911 0.86735 0.0439941 0.157382 -0.05665 0.0439941 0.157382 0.86735 0.158294 -0.0405911 -0.05665 -0.00407138 0.182618 -0.05665 -0.00407138 0.182618 0.86735 0.00410469 0.182615 0.86735 -0.0121428 0.181309 -0.05665 -0.0121428 0.181309 0.86735 -0.0199002 0.178722 0.86735 -0.0199002 0.178722 -0.05665 -0.0271424 0.174923 -0.05665 -0.0271424 0.174923 0.86735 -0.0336815 0.170011 -0.05665 -0.0336815 0.170011 0.86735 -0.0393477 0.164113 0.86735 -0.0393477 0.164113 -0.05665 -0.0439941 0.157382 -0.05665 -0.0439941 0.157382 0.86735 0.00410469 0.182615 -0.05665 0.0121735 0.181301 0.86735 0.0121735 0.181301 -0.05665 0.0199262 0.17871 0.86735 0.0199262 0.17871 -0.05665 0.027162 0.174909 -0.05665 0.027162 0.174909 0.86735 0.0336939 0.169999 0.86735 0.0336939 0.169999 -0.05665 0.0393477 0.164113 0.86735 0.0393477 0.164113 -0.05665 0.0439941 0.157382 0.86735 0.0439941 0.157382 -0.05665 -0.0439941 0.157382 -0.05665 -0.158294 -0.0405911 0.86735 -0.0439941 0.157382 0.86735 -0.158294 -0.0405911 -0.05665 -0.156108 -0.0948488 -0.05665 -0.156108 -0.0948488 0.86735 -0.160195 -0.0877687 0.86735 -0.150937 -0.101182 -0.05665 -0.150937 -0.101182 0.86735 -0.144818 -0.106603 0.86735 -0.144818 -0.106603 -0.05665 -0.137908 -0.110972 -0.05665 -0.137908 -0.110972 0.86735 -0.130387 -0.114177 -0.05665 -0.130387 -0.114177 0.86735 -0.122449 -0.116133 0.86735 -0.122449 -0.116133 -0.05665 -0.1143 -0.116791 -0.05665 -0.1143 -0.116791 0.86735 -0.160195 -0.0877687 -0.05665 -0.163094 -0.0801246 0.86735 -0.163094 -0.0801246 -0.05665 -0.16473 -0.0721144 0.86735 -0.16473 -0.0721144 -0.05665 -0.165059 -0.0639456 -0.05665 -0.165059 -0.0639456 0.86735 -0.164073 -0.0558298 0.86735 -0.164073 -0.0558298 -0.05665 -0.161799 -0.0479772 0.86735 -0.161799 -0.0479772 -0.05665 -0.158294 -0.0405911 0.86735 -0.158294 -0.0405911 -0.05665 -0.1143 -0.116791 0.86735 0.1143 -0.116791 -0.05665 0.1143 -0.116791 0.86735 -0.1143 -0.116791 -0.05665 0.160195 -0.0877687 -0.05665 0.160195 -0.0877687 0.86735 0.156108 -0.0948488 0.86735 0.163094 -0.0801246 -0.05665 0.163094 -0.0801246 0.86735 0.16473 -0.0721144 0.86735 0.16473 -0.0721144 -0.05665 0.165059 -0.0639456 -0.05665 0.165059 -0.0639456 0.86735 0.164073 -0.0558298 -0.05665 0.164073 -0.0558298 0.86735 0.161799 -0.0479772 0.86735 0.161799 -0.0479772 -0.05665 0.158294 -0.0405911 -0.05665 0.158294 -0.0405911 0.86735 0.156108 -0.0948488 -0.05665 0.150937 -0.101182 0.86735 0.150937 -0.101182 -0.05665 0.144818 -0.106603 0.86735 0.144818 -0.106603 -0.05665 0.137908 -0.110972 -0.05665 0.137908 -0.110972 0.86735 0.130387 -0.114177 0.86735 0.130387 -0.114177 -0.05665 0.122449 -0.116133 0.86735 0.122449 -0.116133 -0.05665 0.1143 -0.116791 0.86735 0.1143 -0.116791 -0.05665 -0.160195 -0.0877687 0.86735 -0.1143 -0.116791 0.86735 -0.163094 -0.0801246 0.86735 0.0121735 0.181301 0.86735 0.00410469 0.182615 0.86735 -0.00407138 0.182618 0.86735 0.0199262 0.17871 0.86735 -0.0121428 0.181309 0.86735 -0.0199002 0.178722 0.86735 0.027162 0.174909 0.86735 -0.0271424 0.174923 0.86735 0.0336939 0.169999 0.86735 0.0393477 0.164113 0.86735 -0.0336815 0.170011 0.86735 -0.0393477 0.164113 0.86735 0.0439941 0.157382 0.86735 -0.0439941 0.157382 0.86735 0.158294 -0.0405911 0.86735 -0.150937 -0.101182 0.86735 -0.144818 -0.106603 0.86735 -0.158294 -0.0405911 0.86735 -0.130387 -0.114177 0.86735 -0.137908 -0.110972 0.86735 -0.122449 -0.116133 0.86735 -0.156108 -0.0948488 0.86735 -0.16473 -0.0721144 0.86735 -0.165059 -0.0639456 0.86735 -0.161799 -0.0479772 0.86735 -0.164073 -0.0558298 0.86735 0.1143 -0.116791 0.86735 0.130387 -0.114177 0.86735 0.122449 -0.116133 0.86735 0.137908 -0.110972 0.86735 0.144818 -0.106603 0.86735 0.150937 -0.101182 0.86735 0.156108 -0.0948488 0.86735 0.160195 -0.0877687 0.86735 0.163094 -0.0801246 0.86735 0.16473 -0.0721144 0.86735 0.165059 -0.0639456 0.86735 0.164073 -0.0558298 0.86735 0.161799 -0.0479772 0.86735 0.027162 0.174909 -0.05665 -0.0271424 0.174923 -0.05665 -0.0199002 0.178722 -0.05665 -0.0121428 0.181309 -0.05665 -0.00407138 0.182618 -0.05665 0.0121735 0.181301 -0.05665 0.00410469 0.182615 -0.05665 0.0199262 0.17871 -0.05665 0.0336939 0.169999 -0.05665 0.0393477 0.164113 -0.05665 -0.0336815 0.170011 -0.05665 -0.0393477 0.164113 -0.05665 0.0439941 0.157382 -0.05665 -0.0439941 0.157382 -0.05665 -0.1143 -0.116791 -0.05665 -0.0455371 -0.0717718 -0.05665 -0.0361821 -0.0769144 -0.05665 -0.144818 -0.106603 -0.05665 -0.150937 -0.101182 -0.05665 -0.068759 -0.0499715 -0.05665 -0.0619459 -0.0582022 -0.05665 -0.130387 -0.114177 -0.05665 -0.137908 -0.110972 -0.05665 -0.122449 -0.116133 -0.05665 -0.156108 -0.0948488 -0.05665 -0.160195 -0.0877687 -0.05665 -0.163094 -0.0801246 -0.05665 -0.16473 -0.0721144 -0.05665 -0.0541618 -0.065507 -0.05665 -0.0744833 -0.040953 -0.05665 0.0744873 -0.0409468 -0.05665 0.164073 -0.0558298 -0.05665 0.165059 -0.0639456 -0.05665 0.130387 -0.114177 -0.05665 0.122449 -0.116133 -0.05665 0.1143 -0.116791 -0.05665 0.0790365 -0.031275 -0.05665 0.158294 -0.0405911 -0.05665 0.144818 -0.106603 -0.05665 0.137908 -0.110972 -0.05665 0.160195 -0.0877687 -0.05665 0.156108 -0.0948488 -0.05665 0.0687757 -0.0499458 -0.05665 0.150937 -0.101182 -0.05665 0.16473 -0.0721144 -0.05665 0.163094 -0.0801246 -0.05665 0.161799 -0.0479772 -0.05665 0.0823341 -0.0211148 -0.05665 -0.0790365 0.031275 -0.05665 -0.158294 -0.0405911 -0.05665 -0.0744873 0.0409468 -0.05665 0.068759 0.0499715 -0.05665 0.0744833 0.040953 -0.05665 -0.0362048 0.0769021 -0.05665 -0.0455495 0.0717651 -0.05665 0.085 -1.42109e-17 -0.05665 0.0843275 0.0106676 -0.05665 -0.0823341 0.0211148 -0.05665 -0.0843275 0.0106676 -0.05665 -0.085 -3.55271e-18 -0.05665 -0.0687757 0.0499458 -0.05665 -0.0541947 0.0654814 -0.05665 -0.0619779 0.0581675 -0.05665 -0.0159469 0.0834898 -0.05665 -0.0262892 0.0808305 -0.05665 0.00532452 0.0848317 -0.05665 -0.00534473 0.0848317 -0.05665 0.0159034 0.083497 -0.05665 0.0361821 0.0769144 -0.05665 0.0262457 0.0808454 -0.05665 0.0541618 0.065507 -0.05665 0.0455371 0.0717718 -0.05665 0.0619459 0.0582022 -0.05665 0.079021 0.0313104 -0.05665 0.0823223 0.0211611 -0.05665 0.0843275 -0.0106676 -0.05665 -0.00532452 -0.0848317 -0.05665 0.00534473 -0.0848317 -0.05665 0.0619779 -0.0581675 -0.05665 0.0455495 -0.0717651 -0.05665 0.0541947 -0.0654814 -0.05665 0.0262892 -0.0808305 -0.05665 0.0362048 -0.0769021 -0.05665 0.0159469 -0.0834898 -0.05665 -0.0159034 -0.083497 -0.05665 -0.0262457 -0.0808454 -0.05665 -0.165059 -0.0639456 -0.05665 -0.164073 -0.0558298 -0.05665 -0.161799 -0.0479772 -0.05665 -0.0823223 -0.0211611 -0.05665 -0.079021 -0.0313104 -0.05665 -0.0843275 -0.0106676 -0.05665 -0.00532452 -0.0848317 -0.05665 0.00534473 -0.0848317 -0.14915 0.00534473 -0.0848317 -0.05665 -0.085 5.20475e-18 -0.14915 -0.085 -3.55271e-18 -0.05665 -0.0843275 0.0106676 -0.05665 0.0159469 -0.0834898 -0.05665 0.0159469 -0.0834898 -0.14915 0.0262892 -0.0808305 -0.14915 0.0262892 -0.0808305 -0.05665 0.0362048 -0.0769021 -0.14915 0.0362048 -0.0769021 -0.05665 0.0455495 -0.0717651 -0.05665 0.0455495 -0.0717651 -0.14915 0.0541947 -0.0654814 -0.14915 0.0541947 -0.0654814 -0.05665 0.0619779 -0.0581675 -0.14915 0.0619779 -0.0581675 -0.05665 0.0687757 -0.0499458 -0.05665 0.0687757 -0.0499458 -0.14915 0.0744873 -0.0409468 -0.14915 0.0744873 -0.0409468 -0.05665 0.0790365 -0.031275 -0.14915 0.0790365 -0.031275 -0.05665 0.0823341 -0.0211148 -0.05665 0.0823341 -0.0211148 -0.14915 0.0843275 -0.0106676 -0.14915 0.0843275 -0.0106676 -0.05665 0.085 -2.60237e-17 -0.14915 0.085 -1.42109e-17 -0.05665 -0.00532452 -0.0848317 -0.14915 -0.0159034 -0.083497 -0.05665 -0.0159034 -0.083497 -0.14915 -0.0262457 -0.0808454 -0.05665 -0.0262457 -0.0808454 -0.14915 -0.0361821 -0.0769144 -0.14915 -0.0361821 -0.0769144 -0.05665 -0.0455371 -0.0717718 -0.05665 -0.0455371 -0.0717718 -0.14915 -0.0541618 -0.065507 -0.05665 -0.0541618 -0.065507 -0.14915 -0.0619459 -0.0582022 -0.14915 -0.0619459 -0.0582022 -0.05665 -0.068759 -0.0499715 -0.05665 -0.068759 -0.0499715 -0.14915 -0.0744833 -0.040953 -0.05665 -0.0744833 -0.040953 -0.14915 -0.079021 -0.0313104 -0.14915 -0.079021 -0.0313104 -0.05665 -0.0823223 -0.0211611 -0.05665 -0.0823223 -0.0211611 -0.14915 -0.0843275 -0.0106676 -0.05665 -0.0843275 -0.0106676 -0.14915 -0.0823341 0.0211148 -0.14915 -0.0843275 0.0106676 -0.14915 -0.0823341 0.0211148 -0.05665 -0.0687757 0.0499458 -0.14915 -0.0744873 0.0409468 -0.14915 -0.0687757 0.0499458 -0.05665 -0.0790365 0.031275 -0.14915 -0.0790365 0.031275 -0.05665 -0.0744873 0.0409468 -0.05665 -0.0541947 0.0654814 -0.14915 -0.0455495 0.0717651 -0.05665 -0.0455495 0.0717651 -0.14915 -0.0619779 0.0581675 -0.05665 -0.0541947 0.0654814 -0.05665 -0.0619779 0.0581675 -0.14915 -0.0159469 0.0834898 -0.05665 -0.0159469 0.0834898 -0.14915 -0.0262892 0.0808305 -0.14915 -0.0262892 0.0808305 -0.05665 -0.0362048 0.0769021 -0.14915 -0.0362048 0.0769021 -0.05665 0.0159034 0.083497 -0.14915 0.00532452 0.0848317 -0.14915 0.0159034 0.083497 -0.05665 -0.00534473 0.0848317 -0.14915 -0.00534473 0.0848317 -0.05665 0.00532452 0.0848317 -0.05665 0.0361821 0.0769144 -0.14915 0.0455371 0.0717718 -0.05665 0.0455371 0.0717718 -0.14915 0.0262457 0.0808454 -0.05665 0.0361821 0.0769144 -0.05665 0.0262457 0.0808454 -0.14915 0.0619459 0.0582022 -0.05665 0.068759 0.0499715 -0.05665 0.0619459 0.0582022 -0.14915 0.0541618 0.065507 -0.14915 0.0541618 0.065507 -0.05665 0.068759 0.0499715 -0.14915 0.0744833 0.040953 -0.05665 0.079021 0.0313104 -0.05665 0.0744833 0.040953 -0.14915 0.0823223 0.0211611 -0.05665 0.079021 0.0313104 -0.14915 0.0823223 0.0211611 -0.14915 0.0843275 0.0106676 -0.05665 0.0843275 0.0106676 -0.14915 -0.0362048 0.0769021 -0.14915 -0.0619779 0.0581675 -0.14915 -0.0541947 0.0654814 -0.14915 -0.0262457 -0.0808454 -0.14915 -0.0361821 -0.0769144 -0.14915 0.085 -2.60237e-17 -0.14915 -0.0262892 0.0808305 -0.14915 -0.0455495 0.0717651 -0.14915 -0.0687757 0.0499458 -0.14915 -0.0159469 0.0834898 -0.14915 -0.0790365 0.031275 -0.14915 -0.0744873 0.0409468 -0.14915 -0.00534473 0.0848317 -0.14915 -0.0823341 0.0211148 -0.14915 0.00532452 0.0848317 -0.14915 0.0159034 0.083497 -0.14915 -0.0843275 0.0106676 -0.14915 0.0262457 0.0808454 -0.14915 -0.085 5.20475e-18 -0.14915 0.0455371 0.0717718 -0.14915 -0.0823223 -0.0211611 -0.14915 -0.0843275 -0.0106676 -0.14915 0.0361821 0.0769144 -0.14915 -0.068759 -0.0499715 -0.14915 -0.0744833 -0.040953 -0.14915 0.068759 0.0499715 -0.14915 -0.079021 -0.0313104 -0.14915 0.0541618 0.065507 -0.14915 0.0619459 0.0582022 -0.14915 -0.0541618 -0.065507 -0.14915 0.0823223 0.0211611 -0.14915 -0.0455371 -0.0717718 -0.14915 0.0744833 0.040953 -0.14915 0.079021 0.0313104 -0.14915 -0.0619459 -0.0582022 -0.14915 0.0843275 -0.0106676 -0.14915 -0.0159034 -0.083497 -0.14915 0.0843275 0.0106676 -0.14915 0.0744873 -0.0409468 -0.14915 0.0159469 -0.0834898 -0.14915 0.0790365 -0.031275 -0.14915 -0.00532452 -0.0848317 -0.14915 0.0823341 -0.0211148 -0.14915 0.0541947 -0.0654814 -0.14915 0.0455495 -0.0717651 -0.14915 0.0362048 -0.0769021 -0.14915 0.0262892 -0.0808305 -0.14915 0.0687757 -0.0499458 -0.14915 0.0619779 -0.0581675 -0.14915 0.00534473 -0.0848317 -0.14915</float_array>
          <technique_common>
            <accessor count="380" source="#ID5" stride="3">
              <param name="X" type="float"/>
              <param name="Y" type="float"/>
              <param name="Z" type="float"/>
            </accessor>
          </technique_common>
        </source>
        <source id="ID6">
          <float_array count="1140" id="ID7">0.866025 0.5 0 0.866025 0.5 0 0.866025 0.5 0 0.866025 0.5 0 -0.0804666 0.996757 0 -0.0804666 0.996757 0 0.0804665 0.996757 0 -0.239316 0.970942 0 -0.239316 0.970942 0 -0.391967 0.919979 0 -0.391967 0.919979 0 -0.534466 0.84519 0 -0.534466 0.84519 0 -0.663123 0.748511 0 -0.663123 0.748511 0 -0.774605 0.632445 0 -0.774605 0.632445 0 -0.866025 0.5 0 -0.866025 0.5 0 0.0804665 0.996757 0 0.239316 0.970942 0 0.239316 0.970942 0 0.391967 0.919979 0 0.391967 0.919979 0 0.534466 0.84519 0 0.534466 0.84519 0 0.663123 0.748511 0 0.663123 0.748511 0 0.774605 0.632445 0 0.774605 0.632445 0 0.866025 0.5 0 0.866025 0.5 0 -0.866025 0.5 0 -0.866025 0.5 0 -0.866025 0.5 0 -0.866025 0.5 0 -0.822984 -0.568065 0 -0.822984 -0.568065 0 -0.90345 -0.428693 -0 -0.721202 -0.692724 0 -0.721202 -0.692724 0 -0.600742 -0.799443 0 -0.600742 -0.799443 0 -0.464723 -0.885456 0 -0.464723 -0.885456 0 -0.316668 -0.948536 0 -0.316668 -0.948536 0 -0.160411 -0.98705 0 -0.160411 -0.98705 0 -6.39859e-08 -1 0 -6.39859e-08 -1 0 -0.90345 -0.428693 -0 -0.960518 -0.278217 -0 -0.960518 -0.278217 -0 -0.992709 -0.120537 -0 -0.992709 -0.120537 -0 -0.999189 0.0402659 0 -0.999189 0.0402659 0 -0.979791 0.200026 0 -0.979791 0.200026 0 -0.935016 0.354605 0 -0.935016 0.354605 0 -0.866025 0.5 0 -0.866025 0.5 0 -1.82123e-16 -1 0 -1.82123e-16 -1 0 -1.82123e-16 -1 0 -1.82123e-16 -1 0 0.90345 -0.428693 0 0.90345 -0.428693 0 0.822984 -0.568065 0 0.960518 -0.278217 0 0.960518 -0.278217 0 0.992709 -0.120537 0 0.992709 -0.120537 0 0.999189 0.0402659 0 0.999189 0.0402659 0 0.979791 0.200026 0 0.979791 0.200026 0 0.935016 0.354605 0 0.935016 0.354605 0 0.866025 0.5 0 0.866025 0.5 0 0.822984 -0.568065 0 0.721202 -0.692724 0 0.721202 -0.692724 0 0.600742 -0.799443 0 0.600742 -0.799443 0 0.464723 -0.885456 0 0.464723 -0.885456 0 0.316668 -0.948536 0 0.316668 -0.948536 0 0.160411 -0.98705 0 0.160411 -0.98705 0 -1.1086e-07 -1 -0 -1.1086e-07 -1 -0 0 0 1 0 0 1 0 0 1 0 0 1 0 0 1 0 0 1 0 0 1 0 0 1 0 0 1 0 0 1 0 0 1 0 0 1 0 0 1 0 0 1 0 0 1 0 0 1 0 0 1 0 0 1 0 0 1 0 0 1 0 0 1 0 0 1 0 0 1 0 0 1 0 0 1 0 0 1 0 0 1 0 0 1 0 0 1 0 0 1 0 0 1 0 0 1 0 0 1 0 0 1 0 0 1 0 0 1 0 0 1 0 0 1 0 0 1 0 0 1 0 0 1 0 0 1 -0 -0 -1 -0 -0 -1 -0 -0 -1 -0 -0 -1 -0 -0 -1 -0 -0 -1 -0 -0 -1 -0 -0 -1 -0 -0 -1 -0 -0 -1 -0 -0 -1 -0 -0 -1 -0 -0 -1 -0 -0 -1 -0 -0 -1 -0 -0 -1 -0 -0 -1 -0 -0 -1 -0 -0 -1 -0 -0 -1 -0 -0 -1 -0 -0 -1 -0 -0 -1 -0 -0 -1 -0 -0 -1 -0 -0 -1 -0 -0 -1 -0 -0 -1 -0 -0 -1 -0 -0 -1 -0 -0 -1 -0 -0 -1 -0 -0 -1 -0 -0 -1 -0 -0 -1 -0 -0 -1 -0 -0 -1 -0 -0 -1 -0 -0 -1 -0 -0 -1 -0 -0 -1 -0 -0 -1 -0 -0 -1 -0 -0 -1 -0 -0 -1 -0 -0 -1 -0 -0 -1 -0 -0 -1 -0 -0 -1 -0 -0 -1 -0 -0 -1 -0 -0 -1 -0 -0 -1 -0 -0 -1 -0 -0 -1 -0 -0 -1 -0 -0 -1 -0 -0 -1 -0 -0 -1 -0 -0 -1 -0 -0 -1 -0 -0 -1 -0 -0 -1 -0 -0 -1 -0 -0 -1 -0 -0 -1 -0 -0 -1 -0 -0 -1 -0 -0 -1 -0 -0 -1 -0 -0 -1 -0 -0 -1 -0 -0 -1 -0 -0 -1 -0 -0 -1 -0 -0 -1 -0 -0 -1 -0 -0 -1 -0 -0 -1 -0 -0 -1 -0 -0 -1 -0 -0 -1 -0 -0 -1 -0 -0 -1 -0 -0 -1 -0 -0 -1 -0 -0 -1 -0 -0 -1 -0 -0 -1 -0 -0 -1 -0 -0 -1 -0 -0 -1 -0.0627905 -0.998027 0 0.0627906 -0.998027 0 0.0627906 -0.998027 0 -1 -8.74228e-08 0 -1 -8.74228e-08 0 -0.992115 0.125333 0 0.187381 -0.982287 0 0.187381 -0.982287 0 0.309017 -0.951056 0 0.309017 -0.951056 0 0.425779 -0.904827 0 0.425779 -0.904827 0 0.535827 -0.844328 0 0.535827 -0.844328 0 0.637424 -0.770513 0 0.637424 -0.770513 0 0.728969 -0.684547 0 0.728969 -0.684547 0 0.809017 -0.587785 0 0.809017 -0.587785 0 0.876307 -0.481754 0 0.876307 -0.481754 0 0.929776 -0.368125 0 0.929776 -0.368125 0 0.968583 -0.24869 0 0.968583 -0.24869 0 0.992115 -0.125333 0 0.992115 -0.125333 0 1 1.74846e-07 0 1 -3.01992e-07 0 -0.0627905 -0.998027 0 -0.187381 -0.982287 0 -0.187381 -0.982287 0 -0.309017 -0.951056 0 -0.309017 -0.951056 0 -0.425779 -0.904827 0 -0.425779 -0.904827 0 -0.535827 -0.844328 0 -0.535827 -0.844328 0 -0.637424 -0.770513 0 -0.637424 -0.770513 0 -0.728969 -0.684547 0 -0.728969 -0.684547 0 -0.809017 -0.587785 0 -0.809017 -0.587785 0 -0.876307 -0.481754 0 -0.876307 -0.481753 0 -0.929776 -0.368125 0 -0.929776 -0.368125 0 -0.968583 -0.24869 0 -0.968583 -0.24869 0 -0.992115 -0.125333 0 -0.992115 -0.125333 0 -0.968583 0.24869 0 -0.992115 0.125333 0 -0.968583 0.24869 0 -0.809017 0.587785 0 -0.876307 0.481754 0 -0.809017 0.587785 0 -0.929776 0.368125 0 -0.929776 0.368125 0 -0.876307 0.481754 0 -0.637424 0.770513 0 -0.535827 0.844328 0 -0.535827 0.844328 0 -0.728969 0.684547 0 -0.637424 0.770513 0 -0.728969 0.684547 0 -0.187381 0.982287 0 -0.187381 0.982287 0 -0.309017 0.951056 0 -0.309017 0.951057 0 -0.425779 0.904827 0 -0.425779 0.904827 0 0.187381 0.982287 0 0.0627905 0.998027 0 0.187381 0.982287 0 -0.0627905 0.998027 0 -0.0627905 0.998027 0 0.0627905 0.998027 0 0.425779 0.904827 0 0.535827 0.844328 0 0.535827 0.844328 0 0.309017 0.951056 0 0.425779 0.904827 0 0.309017 0.951057 0 0.728969 0.684547 0 0.809017 0.587785 0 0.728969 0.684547 0 0.637424 0.770513 0 0.637424 0.770513 0 0.809017 0.587785 0 0.876307 0.481754 0 0.929776 0.368125 0 0.876307 0.481754 0 0.968583 0.24869 0 0.929776 0.368125 0 0.968583 0.24869 0 0.992115 0.125333 0 0.992115 0.125333 0 0 0 -1 0 0 -1 0 0 -1 0 0 -1 0 0 -1 0 0 -1 0 0 -1 0 0 -1 0 0 -1 0 0 -1 0 0 -1 0 0 -1 0 0 -1 0 0 -1 0 0 -1 0 0 -1 0 0 -1 0 0 -1 0 0 -1 0 0 -1 0 0 -1 0 0 -1 0 0 -1 0 0 -1 0 0 -1 0 0 -1 0 0 -1 0 0 -1 0 0 -1 0 0 -1 0 0 -1 0 0 -1 0 0 -1 0 0 -1 0 0 -1 0 0 -1 0 0 -1 0 0 -1 0 0 -1 0 0 -1 0 0 -1 0 0 -1 0 0 -1 0 0 -1 0 0 -1 0 0 -1 0 0 -1 0 0 -1 0 0 -1 0 0 -1</float_array>
          <technique_common>
            <accessor count="380" source="#ID7" stride="3">
              <param name="X" type="float"/>
              <param name="Y" type="float"/>
              <param name="Z" type="float"/>
            </accessor>
          </technique_common>
        </source>
        <vertices id="ID8">
          <input semantic="POSITION" source="#ID4"/>
          <input semantic="NORMAL" source="#ID6"/>
        </vertices>
        <triangles count="364" material="ID9">
          <input offset="0" semantic="VERTEX" source="#ID8"/>
          <p>0 1 2 1 0 3 4 5 6 5 7 8 7 5 4 9 8 10 7 10 8 11 12 9 9 10 11 12 13 14 13 12 11 15 14 16 13 16 14 17 18 15 15 16 17 4 6 19 20 21 19 19 6 20 21 22 23 22 21 20 24 23 25 22 25 23 26 27 24 24 25 26 27 28 29 28 27 26 28 30 29 29 30 31 32 33 34 32 35 33 36 37 38 37 39 40 39 37 36 41 40 42 39 42 40 43 44 41 41 42 43 44 45 46 45 44 43 47 46 48 45 48 46 49 50 47 47 48 49 36 38 51 52 53 51 51 38 52 53 54 55 54 53 52 56 55 57 54 57 55 58 59 56 56 57 58 59 60 61 60 59 58 60 62 61 61 62 63 64 65 66 65 64 67 68 69 70 69 71 72 71 69 68 73 72 74 71 74 72 75 76 73 73 74 75 76 77 78 77 76 75 79 78 80 77 80 78 81 82 79 79 80 81 68 70 83 84 85 83 83 70 84 85 86 87 86 85 84 88 87 89 86 89 87 90 91 88 88 89 90 91 92 93 92 91 90 92 94 93 93 94 95 96 97 98 99 100 101 102 99 103 101 103 99 104 105 102 102 103 104 105 106 107 106 105 104 108 107 109 106 109 107 108 109 110 111 110 112 110 111 108 111 112 113 97 114 115 113 112 116 117 97 118 97 117 119 120 114 97 118 97 115 98 97 121 97 96 120 122 121 97 97 123 124 122 97 124 97 116 123 97 125 116 126 125 127 116 125 113 125 128 129 126 128 125 125 130 131 129 130 125 125 132 133 131 132 125 125 134 135 133 134 125 125 136 137 135 136 125 125 137 113 138 139 140 141 142 143 143 142 144 141 145 140 145 141 143 139 138 146 140 145 138 147 148 146 139 146 148 147 149 148 150 151 149 149 147 150 152 153 154 155 156 152 157 158 152 159 160 152 152 161 159 162 152 156 160 155 152 162 163 157 157 152 162 157 163 164 165 157 164 166 152 158 167 157 165 168 169 170 171 172 173 168 174 175 173 176 177 171 173 177 178 179 180 181 176 180 182 183 168 180 168 183 168 184 169 168 170 182 174 185 175 184 168 175 186 187 188 189 150 190 191 192 151 193 194 175 195 196 187 187 196 197 187 186 195 198 188 151 187 151 188 199 200 151 151 200 198 151 192 199 151 201 202 191 151 202 151 203 204 201 151 204 205 203 150 151 150 203 206 207 150 150 207 205 208 209 150 150 209 206 150 189 210 150 210 208 211 190 175 150 175 190 175 194 212 175 212 211 193 175 213 214 215 173 213 175 185 180 179 181 178 180 183 216 180 173 180 176 173 217 218 173 173 218 216 219 220 173 173 220 217 173 215 221 173 221 219 222 214 152 173 152 214 154 223 152 152 223 222 153 152 166 167 224 225 167 165 224 187 167 226 167 225 226 227 228 187 187 228 167 197 229 187 187 229 227 230 231 232 233 234 235 236 232 237 231 237 232 238 239 236 236 237 238 239 240 241 240 239 238 242 241 243 240 243 241 244 245 242 242 243 244 245 246 247 246 245 244 248 247 249 246 249 247 250 251 248 248 249 250 251 252 253 252 251 250 254 253 255 252 255 253 256 257 254 254 255 256 258 257 256 258 259 257 231 230 260 261 262 260 260 230 261 262 263 264 263 262 261 265 264 266 263 266 264 267 268 265 265 266 267 268 269 270 269 268 267 271 270 272 269 272 270 273 274 271 271 272 273 274 275 276 275 274 273 277 276 278 275 278 276 279 280 277 277 278 279 280 281 282 281 280 279 281 234 282 283 284 285 282 234 233 286 287 288 289 290 291 292 293 294 295 296 297 298 299 300 301 302 303 304 305 306 307 308 309 310 311 312 313 314 315 316 317 318 316 319 320 321 317 322 317 321 318 323 324 322 321 322 324 323 325 326 326 324 323 327 325 328 325 327 326 259 329 328 327 328 329 258 329 259 320 319 312 316 318 319 314 311 310 311 320 312 304 313 315 315 314 310 305 309 306 304 306 313 307 299 308 305 307 309 298 300 301 308 299 298 303 302 294 301 300 302 296 293 292 293 303 294 286 295 297 297 296 292 287 291 288 286 288 295 289 283 290 287 289 291 285 284 235 290 283 285 233 235 284 330 331 332 333 334 335 336 331 330 330 332 337 338 336 339 336 338 331 339 340 341 338 339 341 339 342 340 343 340 344 342 344 340 345 346 343 343 344 345 346 347 348 347 346 345 349 350 351 347 352 348 353 354 355 356 357 358 359 360 361 362 363 364 365 366 333 335 334 367 368 369 370 371 372 370 373 374 375 376 377 378 375 376 378 375 378 373 369 368 377 376 369 377 379 371 370 370 369 379 372 366 365 372 371 366 367 334 361 335 365 333 359 363 360 361 360 367 364 353 362 359 364 363 362 353 355 354 356 358 355 354 358 357 350 349 357 356 350 348 352 351 352 349 351</p>
        </triangles>
      </mesh>
    </geometry>
  </library_geometries>

  <library_visual_scenes>
    <visual_scene id="ID1">
      <node id="ID2">
        <instance_geometry url="#ID3">
          <bind_material>
            <technique_common>
              <instance_material symbol="ID9" target="#ID9"/>
            </technique_common>
          </bind_material>
        </instance_geometry>
      </node>
    </visual_scene>
  </library_visual_scenes>

  <scene>
    <instance_visual_scene url="#ID1"/>
  </scene>

  <library_nodes/>

</COLLADA>
