<?xml version="1.0"?>
<robot name="apl_tank" xmlns:xacro="http://www.ros.org/wiki/xacro">

    <!-- Frame Dimensions -->
    <xacro:property name="PI" value="3.1415926535897931"/>
    <xacro:property name="tank_height" value="1.613"/>
    <xacro:property name="tank_diameter" value="2.387"/>

    <!-- Test Tank -->
    <link name="tank_origin">
        <visual>
            <origin xyz="0 0 0" rpy="0 0 0"/>
            <geometry>
                <mesh filename="package://testbed_description/meshes/tank/apl_tank.dae"/>
            </geometry>
        </visual>

        <collision>
            <origin xyz="0 0 0" rpy="0 0 0"/>
            <geometry>
                <mesh filename="package://testbed_description/meshes/tank/apl_tank_collision.dae"/>
            </geometry>
        </collision>

        <inertial>
            <mass value="2714"/>
            <inertia ixx="2000" ixy="0.0" ixz="0.0" iyy="2000" iyz="0.0" izz="3000"/>
            <origin xyz="0.903 0 0" rpy="0 0 0" />
        </inertial>
    </link>

</robot>
